
*** Running vivado
    with args -log design_hbm_channel_axis_register_slice_2_0.vds -m64 -product Vivado -mode batch -messageDb vivado.pb -notrace -source design_hbm_channel_axis_register_slice_2_0.tcl


****** Vivado v2022.2 (64-bit)
  **** SW Build 3671981 on Fri Oct 14 04:59:54 MDT 2022
  **** IP Build 3669848 on Fri Oct 14 08:30:02 MDT 2022
    ** Copyright 1986-2022 Xilinx, Inc. All Rights Reserved.

source design_hbm_channel_axis_register_slice_2_0.tcl -notrace
INFO: [IP_Flow 19-234] Refreshing IP repositories
INFO: [IP_Flow 19-1700] Loaded user IP repository '/media/dell/workspace/Xilinx_projects/ringallreduced'.
WARNING: [IP_Flow 19-3656] If you move the project, the path for repository '/media/dell/workspace/Xilinx_projects/ringallreduced' may become invalid. A better location for the repository would be in a path adjacent to the project. (Current project location is '/media/dell/workspace/Xilinx_projects/ringallreduced/ringallreduced.runs/design_hbm_channel_axis_register_slice_2_0_synth_1'.)
INFO: [IP_Flow 19-1700] Loaded user IP repository '/media/dell/workspace/Xilinx_projects/eth/eth_fmc_loop__/eth_fmc_loop'.
INFO: [IP_Flow 19-2313] Loaded Vivado IP repository '/tools/Xilinx/Vivado/2022.2/data/ip'.
INFO: [IP_Flow 19-6924] IPCACHE: Running cache check for IP inst: design_hbm_channel_axis_register_slice_2_0
Command: synth_design -top design_hbm_channel_axis_register_slice_2_0 -part xcvu37p-fsvh2892-2L-e -incremental_mode off -mode out_of_context
Starting synth_design
Attempting to get a license for feature 'Synthesis' and/or device 'xcvu37p'
INFO: [Common 17-349] Got license for feature 'Synthesis' and/or device 'xcvu37p'
INFO: [Device 21-403] Loading part xcvu37p-fsvh2892-2L-e
INFO: [Synth 8-7079] Multithreading enabled for synth_design using a maximum of 4 processes.
INFO: [Synth 8-7078] Launching helper process for spawning children vivado processes
INFO: [Synth 8-7075] Helper process launched with PID 980931
INFO: [Synth 8-11241] undeclared symbol 'REGCCE', assumed default net type 'wire' [/tools/Xilinx/Vivado/2022.2/data/verilog/src/unimacro/BRAM_SINGLE_MACRO.v:2170]
---------------------------------------------------------------------------------
Starting RTL Elaboration : Time (s): cpu = 00:00:02 ; elapsed = 00:00:03 . Memory (MB): peak = 2958.648 ; gain = 371.770 ; free physical = 4782 ; free virtual = 17379
Synthesis current peak Physical Memory [PSS] (MB): peak = 2222.538; parent = 2065.068; children = 157.470
Synthesis current peak Virtual Memory [VSS] (MB): peak = 3962.988; parent = 2964.590; children = 998.398
---------------------------------------------------------------------------------
INFO: [Synth 8-6157] synthesizing module 'design_hbm_channel_axis_register_slice_2_0' [/media/dell/workspace/Xilinx_projects/ringallreduced/ringallreduced.gen/sources_1/bd/design_hbm_channel/ip/design_hbm_channel_axis_register_slice_2_0/synth/design_hbm_channel_axis_register_slice_2_0.v:53]
INFO: [Synth 8-6157] synthesizing module 'axis_register_slice_v1_1_27_axis_register_slice' [/media/dell/workspace/Xilinx_projects/ringallreduced/ringallreduced.gen/sources_1/bd/design_hbm_channel/ipshared/6ba3/hdl/axis_register_slice_v1_1_vl_rfs.v:2837]
INFO: [Synth 8-6157] synthesizing module 'axis_infrastructure_v1_1_0_util_axis2vector' [/media/dell/workspace/Xilinx_projects/ringallreduced/ringallreduced.gen/sources_1/bd/design_hbm_channel/ipshared/8713/hdl/axis_infrastructure_v1_1_vl_rfs.v:809]
INFO: [Synth 8-6155] done synthesizing module 'axis_infrastructure_v1_1_0_util_axis2vector' (0#1) [/media/dell/workspace/Xilinx_projects/ringallreduced/ringallreduced.gen/sources_1/bd/design_hbm_channel/ipshared/8713/hdl/axis_infrastructure_v1_1_vl_rfs.v:809]
INFO: [Synth 8-6157] synthesizing module 'axis_register_slice_v1_1_27_axisc_register_slice' [/media/dell/workspace/Xilinx_projects/ringallreduced/ringallreduced.gen/sources_1/bd/design_hbm_channel/ipshared/6ba3/hdl/axis_register_slice_v1_1_vl_rfs.v:1935]
INFO: [Synth 8-6155] done synthesizing module 'axis_register_slice_v1_1_27_axisc_register_slice' (0#1) [/media/dell/workspace/Xilinx_projects/ringallreduced/ringallreduced.gen/sources_1/bd/design_hbm_channel/ipshared/6ba3/hdl/axis_register_slice_v1_1_vl_rfs.v:1935]
INFO: [Synth 8-6157] synthesizing module 'axis_infrastructure_v1_1_0_util_vector2axis' [/media/dell/workspace/Xilinx_projects/ringallreduced/ringallreduced.gen/sources_1/bd/design_hbm_channel/ipshared/8713/hdl/axis_infrastructure_v1_1_vl_rfs.v:991]
INFO: [Synth 8-6155] done synthesizing module 'axis_infrastructure_v1_1_0_util_vector2axis' (0#1) [/media/dell/workspace/Xilinx_projects/ringallreduced/ringallreduced.gen/sources_1/bd/design_hbm_channel/ipshared/8713/hdl/axis_infrastructure_v1_1_vl_rfs.v:991]
INFO: [Synth 8-6155] done synthesizing module 'axis_register_slice_v1_1_27_axis_register_slice' (0#1) [/media/dell/workspace/Xilinx_projects/ringallreduced/ringallreduced.gen/sources_1/bd/design_hbm_channel/ipshared/6ba3/hdl/axis_register_slice_v1_1_vl_rfs.v:2837]
INFO: [Synth 8-6155] done synthesizing module 'design_hbm_channel_axis_register_slice_2_0' (0#1) [/media/dell/workspace/Xilinx_projects/ringallreduced/ringallreduced.gen/sources_1/bd/design_hbm_channel/ip/design_hbm_channel_axis_register_slice_2_0/synth/design_hbm_channel_axis_register_slice_2_0.v:53]
WARNING: [Synth 8-7129] Port ACLK2X in module axis_register_slice_v1_1_27_axisc_register_slice is either unconnected or has no load
WARNING: [Synth 8-7129] Port TSTRB[31] in module axis_infrastructure_v1_1_0_util_axis2vector is either unconnected or has no load
WARNING: [Synth 8-7129] Port TSTRB[30] in module axis_infrastructure_v1_1_0_util_axis2vector is either unconnected or has no load
WARNING: [Synth 8-7129] Port TSTRB[29] in module axis_infrastructure_v1_1_0_util_axis2vector is either unconnected or has no load
WARNING: [Synth 8-7129] Port TSTRB[28] in module axis_infrastructure_v1_1_0_util_axis2vector is either unconnected or has no load
WARNING: [Synth 8-7129] Port TSTRB[27] in module axis_infrastructure_v1_1_0_util_axis2vector is either unconnected or has no load
WARNING: [Synth 8-7129] Port TSTRB[26] in module axis_infrastructure_v1_1_0_util_axis2vector is either unconnected or has no load
WARNING: [Synth 8-7129] Port TSTRB[25] in module axis_infrastructure_v1_1_0_util_axis2vector is either unconnected or has no load
WARNING: [Synth 8-7129] Port TSTRB[24] in module axis_infrastructure_v1_1_0_util_axis2vector is either unconnected or has no load
WARNING: [Synth 8-7129] Port TSTRB[23] in module axis_infrastructure_v1_1_0_util_axis2vector is either unconnected or has no load
WARNING: [Synth 8-7129] Port TSTRB[22] in module axis_infrastructure_v1_1_0_util_axis2vector is either unconnected or has no load
WARNING: [Synth 8-7129] Port TSTRB[21] in module axis_infrastructure_v1_1_0_util_axis2vector is either unconnected or has no load
WARNING: [Synth 8-7129] Port TSTRB[20] in module axis_infrastructure_v1_1_0_util_axis2vector is either unconnected or has no load
WARNING: [Synth 8-7129] Port TSTRB[19] in module axis_infrastructure_v1_1_0_util_axis2vector is either unconnected or has no load
WARNING: [Synth 8-7129] Port TSTRB[18] in module axis_infrastructure_v1_1_0_util_axis2vector is either unconnected or has no load
WARNING: [Synth 8-7129] Port TSTRB[17] in module axis_infrastructure_v1_1_0_util_axis2vector is either unconnected or has no load
WARNING: [Synth 8-7129] Port TSTRB[16] in module axis_infrastructure_v1_1_0_util_axis2vector is either unconnected or has no load
WARNING: [Synth 8-7129] Port TSTRB[15] in module axis_infrastructure_v1_1_0_util_axis2vector is either unconnected or has no load
WARNING: [Synth 8-7129] Port TSTRB[14] in module axis_infrastructure_v1_1_0_util_axis2vector is either unconnected or has no load
WARNING: [Synth 8-7129] Port TSTRB[13] in module axis_infrastructure_v1_1_0_util_axis2vector is either unconnected or has no load
WARNING: [Synth 8-7129] Port TSTRB[12] in module axis_infrastructure_v1_1_0_util_axis2vector is either unconnected or has no load
WARNING: [Synth 8-7129] Port TSTRB[11] in module axis_infrastructure_v1_1_0_util_axis2vector is either unconnected or has no load
WARNING: [Synth 8-7129] Port TSTRB[10] in module axis_infrastructure_v1_1_0_util_axis2vector is either unconnected or has no load
WARNING: [Synth 8-7129] Port TSTRB[9] in module axis_infrastructure_v1_1_0_util_axis2vector is either unconnected or has no load
WARNING: [Synth 8-7129] Port TSTRB[8] in module axis_infrastructure_v1_1_0_util_axis2vector is either unconnected or has no load
WARNING: [Synth 8-7129] Port TSTRB[7] in module axis_infrastructure_v1_1_0_util_axis2vector is either unconnected or has no load
WARNING: [Synth 8-7129] Port TSTRB[6] in module axis_infrastructure_v1_1_0_util_axis2vector is either unconnected or has no load
WARNING: [Synth 8-7129] Port TSTRB[5] in module axis_infrastructure_v1_1_0_util_axis2vector is either unconnected or has no load
WARNING: [Synth 8-7129] Port TSTRB[4] in module axis_infrastructure_v1_1_0_util_axis2vector is either unconnected or has no load
WARNING: [Synth 8-7129] Port TSTRB[3] in module axis_infrastructure_v1_1_0_util_axis2vector is either unconnected or has no load
WARNING: [Synth 8-7129] Port TSTRB[2] in module axis_infrastructure_v1_1_0_util_axis2vector is either unconnected or has no load
WARNING: [Synth 8-7129] Port TSTRB[1] in module axis_infrastructure_v1_1_0_util_axis2vector is either unconnected or has no load
WARNING: [Synth 8-7129] Port TSTRB[0] in module axis_infrastructure_v1_1_0_util_axis2vector is either unconnected or has no load
WARNING: [Synth 8-7129] Port TID[0] in module axis_infrastructure_v1_1_0_util_axis2vector is either unconnected or has no load
WARNING: [Synth 8-7129] Port TDEST[0] in module axis_infrastructure_v1_1_0_util_axis2vector is either unconnected or has no load
WARNING: [Synth 8-7129] Port TUSER[0] in module axis_infrastructure_v1_1_0_util_axis2vector is either unconnected or has no load
---------------------------------------------------------------------------------
Finished RTL Elaboration : Time (s): cpu = 00:00:03 ; elapsed = 00:00:04 . Memory (MB): peak = 3031.555 ; gain = 444.676 ; free physical = 4719 ; free virtual = 17323
Synthesis current peak Physical Memory [PSS] (MB): peak = 2222.538; parent = 2065.068; children = 157.470
Synthesis current peak Virtual Memory [VSS] (MB): peak = 4029.957; parent = 3031.559; children = 998.398
---------------------------------------------------------------------------------
---------------------------------------------------------------------------------
Start Handling Custom Attributes
---------------------------------------------------------------------------------
---------------------------------------------------------------------------------
Finished Handling Custom Attributes : Time (s): cpu = 00:00:03 ; elapsed = 00:00:04 . Memory (MB): peak = 3046.398 ; gain = 459.520 ; free physical = 4778 ; free virtual = 17385
Synthesis current peak Physical Memory [PSS] (MB): peak = 2222.538; parent = 2065.068; children = 157.470
Synthesis current peak Virtual Memory [VSS] (MB): peak = 4044.801; parent = 3046.402; children = 998.398
---------------------------------------------------------------------------------
---------------------------------------------------------------------------------
Finished RTL Optimization Phase 1 : Time (s): cpu = 00:00:03 ; elapsed = 00:00:04 . Memory (MB): peak = 3046.398 ; gain = 459.520 ; free physical = 4773 ; free virtual = 17380
Synthesis current peak Physical Memory [PSS] (MB): peak = 2222.538; parent = 2065.068; children = 157.470
Synthesis current peak Virtual Memory [VSS] (MB): peak = 4044.801; parent = 3046.402; children = 998.398
---------------------------------------------------------------------------------
Netlist sorting complete. Time (s): cpu = 00:00:00 ; elapsed = 00:00:00 . Memory (MB): peak = 3046.398 ; gain = 0.000 ; free physical = 4854 ; free virtual = 17460
INFO: [Project 1-570] Preparing netlist for logic optimization

Processing XDC Constraints
Initializing timing engine
Parsing XDC File [/media/dell/workspace/Xilinx_projects/ringallreduced/ringallreduced.gen/sources_1/bd/design_hbm_channel/ip/design_hbm_channel_axis_register_slice_2_0/design_hbm_channel_axis_register_slice_2_0_ooc.xdc] for cell 'inst'
Finished Parsing XDC File [/media/dell/workspace/Xilinx_projects/ringallreduced/ringallreduced.gen/sources_1/bd/design_hbm_channel/ip/design_hbm_channel_axis_register_slice_2_0/design_hbm_channel_axis_register_slice_2_0_ooc.xdc] for cell 'inst'
Parsing XDC File [/media/dell/workspace/Xilinx_projects/ringallreduced/ringallreduced.runs/design_hbm_channel_axis_register_slice_2_0_synth_1/dont_touch.xdc]
Finished Parsing XDC File [/media/dell/workspace/Xilinx_projects/ringallreduced/ringallreduced.runs/design_hbm_channel_axis_register_slice_2_0_synth_1/dont_touch.xdc]
Parsing XDC File [/media/dell/workspace/Xilinx_projects/ringallreduced/ringallreduced.gen/sources_1/bd/design_hbm_channel/ip/design_hbm_channel_axis_register_slice_2_0/design_hbm_channel_axis_register_slice_2_0_clocks.xdc] for cell 'inst'
Finished Parsing XDC File [/media/dell/workspace/Xilinx_projects/ringallreduced/ringallreduced.gen/sources_1/bd/design_hbm_channel/ip/design_hbm_channel_axis_register_slice_2_0/design_hbm_channel_axis_register_slice_2_0_clocks.xdc] for cell 'inst'
Completed Processing XDC Constraints

Netlist sorting complete. Time (s): cpu = 00:00:00 ; elapsed = 00:00:00 . Memory (MB): peak = 3217.992 ; gain = 0.000 ; free physical = 4510 ; free virtual = 17117
INFO: [Project 1-111] Unisim Transformation Summary:
No Unisim elements were transformed.

Constraint Validation Runtime : Time (s): cpu = 00:00:00.01 ; elapsed = 00:00:00.02 . Memory (MB): peak = 3217.992 ; gain = 0.000 ; free physical = 4509 ; free virtual = 17116
INFO: [Designutils 20-5008] Incremental synthesis strategy off
INFO: [Synth 8-11241] undeclared symbol 'REGCCE', assumed default net type 'wire' [/tools/Xilinx/Vivado/2022.2/data/verilog/src/unimacro/BRAM_SINGLE_MACRO.v:2170]
---------------------------------------------------------------------------------
Finished Constraint Validation : Time (s): cpu = 00:00:10 ; elapsed = 00:00:10 . Memory (MB): peak = 3217.992 ; gain = 631.113 ; free physical = 4310 ; free virtual = 16923
Synthesis current peak Physical Memory [PSS] (MB): peak = 2234.770; parent = 2080.296; children = 157.470
Synthesis current peak Virtual Memory [VSS] (MB): peak = 4184.379; parent = 3185.980; children = 998.398
---------------------------------------------------------------------------------
---------------------------------------------------------------------------------
Start Loading Part and Timing Information
---------------------------------------------------------------------------------
Loading part: xcvu37p-fsvh2892-2L-e
INFO: [Synth 8-6742] Reading net delay rules and data
---------------------------------------------------------------------------------
Finished Loading Part and Timing Information : Time (s): cpu = 00:00:10 ; elapsed = 00:00:10 . Memory (MB): peak = 3217.992 ; gain = 631.113 ; free physical = 4301 ; free virtual = 16918
Synthesis current peak Physical Memory [PSS] (MB): peak = 2234.770; parent = 2080.296; children = 157.470
Synthesis current peak Virtual Memory [VSS] (MB): peak = 4184.379; parent = 3185.980; children = 998.398
---------------------------------------------------------------------------------
---------------------------------------------------------------------------------
Start Applying 'set_property' XDC Constraints
---------------------------------------------------------------------------------
Applied set_property KEEP_HIERARCHY = SOFT for inst. (constraint file  /media/dell/workspace/Xilinx_projects/ringallreduced/ringallreduced.runs/design_hbm_channel_axis_register_slice_2_0_synth_1/dont_touch.xdc, line 9).
---------------------------------------------------------------------------------
Finished applying 'set_property' XDC Constraints : Time (s): cpu = 00:00:10 ; elapsed = 00:00:11 . Memory (MB): peak = 3217.992 ; gain = 631.113 ; free physical = 4285 ; free virtual = 16900
Synthesis current peak Physical Memory [PSS] (MB): peak = 2234.770; parent = 2080.296; children = 157.470
Synthesis current peak Virtual Memory [VSS] (MB): peak = 4184.379; parent = 3185.980; children = 998.398
---------------------------------------------------------------------------------
INFO: [Synth 8-4490] FSM extraction disabled for register 'gen_AB_reg_slice.state_reg' through user attribute
---------------------------------------------------------------------------------
Finished RTL Optimization Phase 2 : Time (s): cpu = 00:00:10 ; elapsed = 00:00:11 . Memory (MB): peak = 3217.992 ; gain = 631.113 ; free physical = 4028 ; free virtual = 16658
Synthesis current peak Physical Memory [PSS] (MB): peak = 2234.770; parent = 2080.296; children = 157.470
Synthesis current peak Virtual Memory [VSS] (MB): peak = 4184.379; parent = 3185.980; children = 998.398
---------------------------------------------------------------------------------
---------------------------------------------------------------------------------
Start RTL Component Statistics 
---------------------------------------------------------------------------------
Detailed RTL Component Info : 
+---Registers : 
	              289 Bit    Registers := 2     
	                2 Bit    Registers := 1     
	                1 Bit    Registers := 3     
+---Muxes : 
	   2 Input  289 Bit        Muxes := 1     
	   5 Input    2 Bit        Muxes := 1     
	   2 Input    1 Bit        Muxes := 1     
	   4 Input    1 Bit        Muxes := 1     
---------------------------------------------------------------------------------
Finished RTL Component Statistics 
---------------------------------------------------------------------------------
---------------------------------------------------------------------------------
Start Part Resource Summary
---------------------------------------------------------------------------------
Part Resources:
DSPs: 9024 (col length:94)
BRAMs: 4032 (col length: RAMB18 288 RAMB36 144)
---------------------------------------------------------------------------------
Finished Part Resource Summary
---------------------------------------------------------------------------------
---------------------------------------------------------------------------------
Start Cross Boundary and Area Optimization
---------------------------------------------------------------------------------
WARNING: [Synth 8-7080] Parallel synthesis criteria is not met
WARNING: [Synth 8-7129] Port aclk2x in module axis_register_slice_v1_1_27_axis_register_slice is either unconnected or has no load
WARNING: [Synth 8-7129] Port s_axis_tstrb[31] in module axis_register_slice_v1_1_27_axis_register_slice is either unconnected or has no load
WARNING: [Synth 8-7129] Port s_axis_tstrb[30] in module axis_register_slice_v1_1_27_axis_register_slice is either unconnected or has no load
WARNING: [Synth 8-7129] Port s_axis_tstrb[29] in module axis_register_slice_v1_1_27_axis_register_slice is either unconnected or has no load
WARNING: [Synth 8-7129] Port s_axis_tstrb[28] in module axis_register_slice_v1_1_27_axis_register_slice is either unconnected or has no load
WARNING: [Synth 8-7129] Port s_axis_tstrb[27] in module axis_register_slice_v1_1_27_axis_register_slice is either unconnected or has no load
WARNING: [Synth 8-7129] Port s_axis_tstrb[26] in module axis_register_slice_v1_1_27_axis_register_slice is either unconnected or has no load
WARNING: [Synth 8-7129] Port s_axis_tstrb[25] in module axis_register_slice_v1_1_27_axis_register_slice is either unconnected or has no load
WARNING: [Synth 8-7129] Port s_axis_tstrb[24] in module axis_register_slice_v1_1_27_axis_register_slice is either unconnected or has no load
WARNING: [Synth 8-7129] Port s_axis_tstrb[23] in module axis_register_slice_v1_1_27_axis_register_slice is either unconnected or has no load
WARNING: [Synth 8-7129] Port s_axis_tstrb[22] in module axis_register_slice_v1_1_27_axis_register_slice is either unconnected or has no load
WARNING: [Synth 8-7129] Port s_axis_tstrb[21] in module axis_register_slice_v1_1_27_axis_register_slice is either unconnected or has no load
WARNING: [Synth 8-7129] Port s_axis_tstrb[20] in module axis_register_slice_v1_1_27_axis_register_slice is either unconnected or has no load
WARNING: [Synth 8-7129] Port s_axis_tstrb[19] in module axis_register_slice_v1_1_27_axis_register_slice is either unconnected or has no load
WARNING: [Synth 8-7129] Port s_axis_tstrb[18] in module axis_register_slice_v1_1_27_axis_register_slice is either unconnected or has no load
WARNING: [Synth 8-7129] Port s_axis_tstrb[17] in module axis_register_slice_v1_1_27_axis_register_slice is either unconnected or has no load
WARNING: [Synth 8-7129] Port s_axis_tstrb[16] in module axis_register_slice_v1_1_27_axis_register_slice is either unconnected or has no load
WARNING: [Synth 8-7129] Port s_axis_tstrb[15] in module axis_register_slice_v1_1_27_axis_register_slice is either unconnected or has no load
WARNING: [Synth 8-7129] Port s_axis_tstrb[14] in module axis_register_slice_v1_1_27_axis_register_slice is either unconnected or has no load
WARNING: [Synth 8-7129] Port s_axis_tstrb[13] in module axis_register_slice_v1_1_27_axis_register_slice is either unconnected or has no load
WARNING: [Synth 8-7129] Port s_axis_tstrb[12] in module axis_register_slice_v1_1_27_axis_register_slice is either unconnected or has no load
WARNING: [Synth 8-7129] Port s_axis_tstrb[11] in module axis_register_slice_v1_1_27_axis_register_slice is either unconnected or has no load
WARNING: [Synth 8-7129] Port s_axis_tstrb[10] in module axis_register_slice_v1_1_27_axis_register_slice is either unconnected or has no load
WARNING: [Synth 8-7129] Port s_axis_tstrb[9] in module axis_register_slice_v1_1_27_axis_register_slice is either unconnected or has no load
WARNING: [Synth 8-7129] Port s_axis_tstrb[8] in module axis_register_slice_v1_1_27_axis_register_slice is either unconnected or has no load
WARNING: [Synth 8-7129] Port s_axis_tstrb[7] in module axis_register_slice_v1_1_27_axis_register_slice is either unconnected or has no load
WARNING: [Synth 8-7129] Port s_axis_tstrb[6] in module axis_register_slice_v1_1_27_axis_register_slice is either unconnected or has no load
WARNING: [Synth 8-7129] Port s_axis_tstrb[5] in module axis_register_slice_v1_1_27_axis_register_slice is either unconnected or has no load
WARNING: [Synth 8-7129] Port s_axis_tstrb[4] in module axis_register_slice_v1_1_27_axis_register_slice is either unconnected or has no load
WARNING: [Synth 8-7129] Port s_axis_tstrb[3] in module axis_register_slice_v1_1_27_axis_register_slice is either unconnected or has no load
WARNING: [Synth 8-7129] Port s_axis_tstrb[2] in module axis_register_slice_v1_1_27_axis_register_slice is either unconnected or has no load
WARNING: [Synth 8-7129] Port s_axis_tstrb[1] in module axis_register_slice_v1_1_27_axis_register_slice is either unconnected or has no load
WARNING: [Synth 8-7129] Port s_axis_tstrb[0] in module axis_register_slice_v1_1_27_axis_register_slice is either unconnected or has no load
WARNING: [Synth 8-7129] Port s_axis_tid[0] in module axis_register_slice_v1_1_27_axis_register_slice is either unconnected or has no load
WARNING: [Synth 8-7129] Port s_axis_tdest[0] in module axis_register_slice_v1_1_27_axis_register_slice is either unconnected or has no load
WARNING: [Synth 8-7129] Port s_axis_tuser[0] in module axis_register_slice_v1_1_27_axis_register_slice is either unconnected or has no load
---------------------------------------------------------------------------------
Finished Cross Boundary and Area Optimization : Time (s): cpu = 00:00:10 ; elapsed = 00:00:12 . Memory (MB): peak = 3217.992 ; gain = 631.113 ; free physical = 3533 ; free virtual = 16180
Synthesis current peak Physical Memory [PSS] (MB): peak = 2234.770; parent = 2080.296; children = 157.470
Synthesis current peak Virtual Memory [VSS] (MB): peak = 4184.379; parent = 3185.980; children = 998.398
---------------------------------------------------------------------------------
---------------------------------------------------------------------------------
Start Applying XDC Timing Constraints
---------------------------------------------------------------------------------
---------------------------------------------------------------------------------
Finished Applying XDC Timing Constraints : Time (s): cpu = 00:00:17 ; elapsed = 00:00:19 . Memory (MB): peak = 3473.430 ; gain = 886.551 ; free physical = 1236 ; free virtual = 13931
Synthesis current peak Physical Memory [PSS] (MB): peak = 2672.858; parent = 2524.016; children = 157.470
Synthesis current peak Virtual Memory [VSS] (MB): peak = 4471.832; parent = 3473.434; children = 998.398
---------------------------------------------------------------------------------
---------------------------------------------------------------------------------
Start Timing Optimization
---------------------------------------------------------------------------------
---------------------------------------------------------------------------------
Finished Timing Optimization : Time (s): cpu = 00:00:18 ; elapsed = 00:00:19 . Memory (MB): peak = 3484.445 ; gain = 897.566 ; free physical = 1214 ; free virtual = 13910
Synthesis current peak Physical Memory [PSS] (MB): peak = 2674.609; parent = 2525.767; children = 157.470
Synthesis current peak Virtual Memory [VSS] (MB): peak = 4482.848; parent = 3484.449; children = 998.398
---------------------------------------------------------------------------------
---------------------------------------------------------------------------------
Start Technology Mapping
---------------------------------------------------------------------------------
---------------------------------------------------------------------------------
Finished Technology Mapping : Time (s): cpu = 00:00:18 ; elapsed = 00:00:20 . Memory (MB): peak = 3494.461 ; gain = 907.582 ; free physical = 1204 ; free virtual = 13899
Synthesis current peak Physical Memory [PSS] (MB): peak = 2674.609; parent = 2525.767; children = 157.470
Synthesis current peak Virtual Memory [VSS] (MB): peak = 4492.863; parent = 3494.465; children = 998.398
---------------------------------------------------------------------------------
---------------------------------------------------------------------------------
Start IO Insertion
---------------------------------------------------------------------------------
---------------------------------------------------------------------------------
Start Flattening Before IO Insertion
---------------------------------------------------------------------------------
---------------------------------------------------------------------------------
Finished Flattening Before IO Insertion
---------------------------------------------------------------------------------
---------------------------------------------------------------------------------
Start Final Netlist Cleanup
---------------------------------------------------------------------------------
---------------------------------------------------------------------------------
Finished Final Netlist Cleanup
---------------------------------------------------------------------------------
---------------------------------------------------------------------------------
Finished IO Insertion : Time (s): cpu = 00:00:20 ; elapsed = 00:00:22 . Memory (MB): peak = 3501.398 ; gain = 914.520 ; free physical = 1320 ; free virtual = 14016
Synthesis current peak Physical Memory [PSS] (MB): peak = 2684.214; parent = 2529.873; children = 157.470
Synthesis current peak Virtual Memory [VSS] (MB): peak = 4499.801; parent = 3501.402; children = 998.398
---------------------------------------------------------------------------------
---------------------------------------------------------------------------------
Start Renaming Generated Instances
---------------------------------------------------------------------------------
---------------------------------------------------------------------------------
Finished Renaming Generated Instances : Time (s): cpu = 00:00:20 ; elapsed = 00:00:22 . Memory (MB): peak = 3501.398 ; gain = 914.520 ; free physical = 1415 ; free virtual = 14111
Synthesis current peak Physical Memory [PSS] (MB): peak = 2684.221; parent = 2529.897; children = 157.470
Synthesis current peak Virtual Memory [VSS] (MB): peak = 4499.801; parent = 3501.402; children = 998.398
---------------------------------------------------------------------------------
---------------------------------------------------------------------------------
Start Rebuilding User Hierarchy
---------------------------------------------------------------------------------
---------------------------------------------------------------------------------
Finished Rebuilding User Hierarchy : Time (s): cpu = 00:00:20 ; elapsed = 00:00:22 . Memory (MB): peak = 3501.398 ; gain = 914.520 ; free physical = 1394 ; free virtual = 14090
Synthesis current peak Physical Memory [PSS] (MB): peak = 2684.397; parent = 2530.057; children = 157.470
Synthesis current peak Virtual Memory [VSS] (MB): peak = 4499.801; parent = 3501.402; children = 998.398
---------------------------------------------------------------------------------
---------------------------------------------------------------------------------
Start Renaming Generated Ports
---------------------------------------------------------------------------------
---------------------------------------------------------------------------------
Finished Renaming Generated Ports : Time (s): cpu = 00:00:20 ; elapsed = 00:00:22 . Memory (MB): peak = 3501.398 ; gain = 914.520 ; free physical = 1384 ; free virtual = 14080
Synthesis current peak Physical Memory [PSS] (MB): peak = 2684.397; parent = 2530.057; children = 157.470
Synthesis current peak Virtual Memory [VSS] (MB): peak = 4499.801; parent = 3501.402; children = 998.398
---------------------------------------------------------------------------------
---------------------------------------------------------------------------------
Start Handling Custom Attributes
---------------------------------------------------------------------------------
---------------------------------------------------------------------------------
Finished Handling Custom Attributes : Time (s): cpu = 00:00:20 ; elapsed = 00:00:22 . Memory (MB): peak = 3501.398 ; gain = 914.520 ; free physical = 1374 ; free virtual = 14070
Synthesis current peak Physical Memory [PSS] (MB): peak = 2684.397; parent = 2530.057; children = 157.470
Synthesis current peak Virtual Memory [VSS] (MB): peak = 4499.801; parent = 3501.402; children = 998.398
---------------------------------------------------------------------------------
---------------------------------------------------------------------------------
Start Renaming Generated Nets
---------------------------------------------------------------------------------
---------------------------------------------------------------------------------
Finished Renaming Generated Nets : Time (s): cpu = 00:00:20 ; elapsed = 00:00:22 . Memory (MB): peak = 3501.398 ; gain = 914.520 ; free physical = 1367 ; free virtual = 14062
Synthesis current peak Physical Memory [PSS] (MB): peak = 2684.405; parent = 2530.064; children = 157.470
Synthesis current peak Virtual Memory [VSS] (MB): peak = 4499.801; parent = 3501.402; children = 998.398
---------------------------------------------------------------------------------
---------------------------------------------------------------------------------
Start Writing Synthesis Report
---------------------------------------------------------------------------------

Report BlackBoxes: 
+-+--------------+----------+
| |BlackBox name |Instances |
+-+--------------+----------+
+-+--------------+----------+

Report Cell Usage: 
+------+-----+------+
|      |Cell |Count |
+------+-----+------+
|1     |LUT1 |     1|
|2     |LUT3 |   293|
|3     |LUT4 |     3|
|4     |FDRE |   583|
+------+-----+------+
---------------------------------------------------------------------------------
Finished Writing Synthesis Report : Time (s): cpu = 00:00:20 ; elapsed = 00:00:22 . Memory (MB): peak = 3501.398 ; gain = 914.520 ; free physical = 1361 ; free virtual = 14056
Synthesis current peak Physical Memory [PSS] (MB): peak = 2684.436; parent = 2530.095; children = 157.470
Synthesis current peak Virtual Memory [VSS] (MB): peak = 4499.801; parent = 3501.402; children = 998.398
---------------------------------------------------------------------------------
Synthesis finished with 0 errors, 0 critical warnings and 37 warnings.
Synthesis Optimization Runtime : Time (s): cpu = 00:00:16 ; elapsed = 00:00:18 . Memory (MB): peak = 3501.398 ; gain = 742.926 ; free physical = 1389 ; free virtual = 14085
Synthesis Optimization Complete : Time (s): cpu = 00:00:20 ; elapsed = 00:00:22 . Memory (MB): peak = 3501.406 ; gain = 914.520 ; free physical = 1389 ; free virtual = 14085
INFO: [Project 1-571] Translating synthesized netlist
Netlist sorting complete. Time (s): cpu = 00:00:00 ; elapsed = 00:00:00.01 . Memory (MB): peak = 3518.305 ; gain = 0.000 ; free physical = 1481 ; free virtual = 14177
INFO: [Project 1-570] Preparing netlist for logic optimization
INFO: [Opt 31-138] Pushed 0 inverter(s) to 0 load pin(s).
Netlist sorting complete. Time (s): cpu = 00:00:00 ; elapsed = 00:00:00 . Memory (MB): peak = 3600.574 ; gain = 0.000 ; free physical = 1630 ; free virtual = 14328
INFO: [Project 1-111] Unisim Transformation Summary:
No Unisim elements were transformed.

Synth Design complete, checksum: 4f38b9d
INFO: [Common 17-83] Releasing license: Synthesis
32 Infos, 74 Warnings, 0 Critical Warnings and 0 Errors encountered.
synth_design completed successfully
synth_design: Time (s): cpu = 00:00:28 ; elapsed = 00:00:29 . Memory (MB): peak = 3600.574 ; gain = 2260.535 ; free physical = 1822 ; free virtual = 14521
INFO: [Common 17-1381] The checkpoint '/media/dell/workspace/Xilinx_projects/ringallreduced/ringallreduced.runs/design_hbm_channel_axis_register_slice_2_0_synth_1/design_hbm_channel_axis_register_slice_2_0.dcp' has been generated.
INFO: [Coretcl 2-1648] Added synthesis output to IP cache for IP design_hbm_channel_axis_register_slice_2_0, cache-ID = d9996d87c146d1be
INFO: [Coretcl 2-1174] Renamed 2 cell refs.
INFO: [Common 17-1381] The checkpoint '/media/dell/workspace/Xilinx_projects/ringallreduced/ringallreduced.runs/design_hbm_channel_axis_register_slice_2_0_synth_1/design_hbm_channel_axis_register_slice_2_0.dcp' has been generated.
INFO: [runtcl-4] Executing : report_utilization -file design_hbm_channel_axis_register_slice_2_0_utilization_synth.rpt -pb design_hbm_channel_axis_register_slice_2_0_utilization_synth.pb
INFO: [Common 17-206] Exiting Vivado at Tue Dec  6 16:30:11 2022...
