
*** Running vivado
    with args -log axis_register_slice_0.vds -m64 -product Vivado -mode batch -messageDb vivado.pb -notrace -source axis_register_slice_0.tcl


****** Vivado v2022.2 (64-bit)
  **** SW Build 3671981 on Fri Oct 14 04:59:54 MDT 2022
  **** IP Build 3669848 on Fri Oct 14 08:30:02 MDT 2022
    ** Copyright 1986-2022 Xilinx, Inc. All Rights Reserved.

source axis_register_slice_0.tcl -notrace
create_project: Time (s): cpu = 00:00:03 ; elapsed = 00:00:06 . Memory (MB): peak = 1282.547 ; gain = 0.023 ; free physical = 6658 ; free virtual = 20786
INFO: [IP_Flow 19-234] Refreshing IP repositories
INFO: [IP_Flow 19-1700] Loaded user IP repository '/media/dell/workspace/Xilinx_projects/ringallreduced'.
WARNING: [IP_Flow 19-3656] If you move the project, the path for repository '/media/dell/workspace/Xilinx_projects/ringallreduced' may become invalid. A better location for the repository would be in a path adjacent to the project. (Current project location is '/media/dell/workspace/Xilinx_projects/ringallreduced/ringallreduced.runs/axis_register_slice_0_synth_1'.)
INFO: [IP_Flow 19-1700] Loaded user IP repository '/media/dell/workspace/Xilinx_projects/eth/eth_fmc_loop__/eth_fmc_loop'.
INFO: [IP_Flow 19-2313] Loaded Vivado IP repository '/tools/Xilinx/Vivado/2022.2/data/ip'.
update_ip_catalog: Time (s): cpu = 00:00:01 ; elapsed = 00:00:22 . Memory (MB): peak = 1282.547 ; gain = 0.000 ; free physical = 6473 ; free virtual = 20743
INFO: [IP_Flow 19-6924] IPCACHE: Running cache check for IP inst: axis_register_slice_0
Command: synth_design -top axis_register_slice_0 -part xcvu37p-fsvh2892-2L-e -incremental_mode off -mode out_of_context
Starting synth_design
Attempting to get a license for feature 'Synthesis' and/or device 'xcvu37p'
INFO: [Common 17-349] Got license for feature 'Synthesis' and/or device 'xcvu37p'
INFO: [Device 21-403] Loading part xcvu37p-fsvh2892-2L-e
INFO: [Synth 8-7079] Multithreading enabled for synth_design using a maximum of 4 processes.
INFO: [Synth 8-7078] Launching helper process for spawning children vivado processes
INFO: [Synth 8-7075] Helper process launched with PID 938892
INFO: [Synth 8-11241] undeclared symbol 'REGCCE', assumed default net type 'wire' [/tools/Xilinx/Vivado/2022.2/data/verilog/src/unimacro/BRAM_SINGLE_MACRO.v:2170]
---------------------------------------------------------------------------------
Starting RTL Elaboration : Time (s): cpu = 00:00:02 ; elapsed = 00:00:03 . Memory (MB): peak = 2964.906 ; gain = 371.770 ; free physical = 3081 ; free virtual = 17599
Synthesis current peak Physical Memory [PSS] (MB): peak = 2199.541; parent = 2048.562; children = 150.979
Synthesis current peak Virtual Memory [VSS] (MB): peak = 3971.242; parent = 2970.848; children = 1000.395
---------------------------------------------------------------------------------
INFO: [Synth 8-6157] synthesizing module 'axis_register_slice_0' [/media/dell/workspace/Xilinx_projects/ringallreduced/ringallreduced.gen/sources_1/ip/axis_register_slice_0/synth/axis_register_slice_0.v:53]
INFO: [Synth 8-6157] synthesizing module 'axis_register_slice_v1_1_27_axis_register_slice' [/media/dell/workspace/Xilinx_projects/ringallreduced/ringallreduced.gen/sources_1/ip/axis_register_slice_0/hdl/axis_register_slice_v1_1_vl_rfs.v:2837]
INFO: [Synth 8-6157] synthesizing module 'axis_infrastructure_v1_1_0_util_axis2vector' [/media/dell/workspace/Xilinx_projects/ringallreduced/ringallreduced.gen/sources_1/ip/axis_register_slice_0/hdl/axis_infrastructure_v1_1_vl_rfs.v:809]
INFO: [Synth 8-6155] done synthesizing module 'axis_infrastructure_v1_1_0_util_axis2vector' (0#1) [/media/dell/workspace/Xilinx_projects/ringallreduced/ringallreduced.gen/sources_1/ip/axis_register_slice_0/hdl/axis_infrastructure_v1_1_vl_rfs.v:809]
INFO: [Synth 8-6157] synthesizing module 'axis_register_slice_v1_1_27_axisc_register_slice' [/media/dell/workspace/Xilinx_projects/ringallreduced/ringallreduced.gen/sources_1/ip/axis_register_slice_0/hdl/axis_register_slice_v1_1_vl_rfs.v:1935]
INFO: [Synth 8-6155] done synthesizing module 'axis_register_slice_v1_1_27_axisc_register_slice' (0#1) [/media/dell/workspace/Xilinx_projects/ringallreduced/ringallreduced.gen/sources_1/ip/axis_register_slice_0/hdl/axis_register_slice_v1_1_vl_rfs.v:1935]
INFO: [Synth 8-6157] synthesizing module 'axis_infrastructure_v1_1_0_util_vector2axis' [/media/dell/workspace/Xilinx_projects/ringallreduced/ringallreduced.gen/sources_1/ip/axis_register_slice_0/hdl/axis_infrastructure_v1_1_vl_rfs.v:991]
INFO: [Synth 8-6155] done synthesizing module 'axis_infrastructure_v1_1_0_util_vector2axis' (0#1) [/media/dell/workspace/Xilinx_projects/ringallreduced/ringallreduced.gen/sources_1/ip/axis_register_slice_0/hdl/axis_infrastructure_v1_1_vl_rfs.v:991]
INFO: [Synth 8-6155] done synthesizing module 'axis_register_slice_v1_1_27_axis_register_slice' (0#1) [/media/dell/workspace/Xilinx_projects/ringallreduced/ringallreduced.gen/sources_1/ip/axis_register_slice_0/hdl/axis_register_slice_v1_1_vl_rfs.v:2837]
INFO: [Synth 8-6155] done synthesizing module 'axis_register_slice_0' (0#1) [/media/dell/workspace/Xilinx_projects/ringallreduced/ringallreduced.gen/sources_1/ip/axis_register_slice_0/synth/axis_register_slice_0.v:53]
WARNING: [Synth 8-7129] Port ACLK2X in module axis_register_slice_v1_1_27_axisc_register_slice is either unconnected or has no load
WARNING: [Synth 8-7129] Port TSTRB[31] in module axis_infrastructure_v1_1_0_util_axis2vector is either unconnected or has no load
WARNING: [Synth 8-7129] Port TSTRB[30] in module axis_infrastructure_v1_1_0_util_axis2vector is either unconnected or has no load
WARNING: [Synth 8-7129] Port TSTRB[29] in module axis_infrastructure_v1_1_0_util_axis2vector is either unconnected or has no load
WARNING: [Synth 8-7129] Port TSTRB[28] in module axis_infrastructure_v1_1_0_util_axis2vector is either unconnected or has no load
WARNING: [Synth 8-7129] Port TSTRB[27] in module axis_infrastructure_v1_1_0_util_axis2vector is either unconnected or has no load
WARNING: [Synth 8-7129] Port TSTRB[26] in module axis_infrastructure_v1_1_0_util_axis2vector is either unconnected or has no load
WARNING: [Synth 8-7129] Port TSTRB[25] in module axis_infrastructure_v1_1_0_util_axis2vector is either unconnected or has no load
WARNING: [Synth 8-7129] Port TSTRB[24] in module axis_infrastructure_v1_1_0_util_axis2vector is either unconnected or has no load
WARNING: [Synth 8-7129] Port TSTRB[23] in module axis_infrastructure_v1_1_0_util_axis2vector is either unconnected or has no load
WARNING: [Synth 8-7129] Port TSTRB[22] in module axis_infrastructure_v1_1_0_util_axis2vector is either unconnected or has no load
WARNING: [Synth 8-7129] Port TSTRB[21] in module axis_infrastructure_v1_1_0_util_axis2vector is either unconnected or has no load
WARNING: [Synth 8-7129] Port TSTRB[20] in module axis_infrastructure_v1_1_0_util_axis2vector is either unconnected or has no load
WARNING: [Synth 8-7129] Port TSTRB[19] in module axis_infrastructure_v1_1_0_util_axis2vector is either unconnected or has no load
WARNING: [Synth 8-7129] Port TSTRB[18] in module axis_infrastructure_v1_1_0_util_axis2vector is either unconnected or has no load
WARNING: [Synth 8-7129] Port TSTRB[17] in module axis_infrastructure_v1_1_0_util_axis2vector is either unconnected or has no load
WARNING: [Synth 8-7129] Port TSTRB[16] in module axis_infrastructure_v1_1_0_util_axis2vector is either unconnected or has no load
WARNING: [Synth 8-7129] Port TSTRB[15] in module axis_infrastructure_v1_1_0_util_axis2vector is either unconnected or has no load
WARNING: [Synth 8-7129] Port TSTRB[14] in module axis_infrastructure_v1_1_0_util_axis2vector is either unconnected or has no load
WARNING: [Synth 8-7129] Port TSTRB[13] in module axis_infrastructure_v1_1_0_util_axis2vector is either unconnected or has no load
WARNING: [Synth 8-7129] Port TSTRB[12] in module axis_infrastructure_v1_1_0_util_axis2vector is either unconnected or has no load
WARNING: [Synth 8-7129] Port TSTRB[11] in module axis_infrastructure_v1_1_0_util_axis2vector is either unconnected or has no load
WARNING: [Synth 8-7129] Port TSTRB[10] in module axis_infrastructure_v1_1_0_util_axis2vector is either unconnected or has no load
WARNING: [Synth 8-7129] Port TSTRB[9] in module axis_infrastructure_v1_1_0_util_axis2vector is either unconnected or has no load
WARNING: [Synth 8-7129] Port TSTRB[8] in module axis_infrastructure_v1_1_0_util_axis2vector is either unconnected or has no load
WARNING: [Synth 8-7129] Port TSTRB[7] in module axis_infrastructure_v1_1_0_util_axis2vector is either unconnected or has no load
WARNING: [Synth 8-7129] Port TSTRB[6] in module axis_infrastructure_v1_1_0_util_axis2vector is either unconnected or has no load
WARNING: [Synth 8-7129] Port TSTRB[5] in module axis_infrastructure_v1_1_0_util_axis2vector is either unconnected or has no load
WARNING: [Synth 8-7129] Port TSTRB[4] in module axis_infrastructure_v1_1_0_util_axis2vector is either unconnected or has no load
WARNING: [Synth 8-7129] Port TSTRB[3] in module axis_infrastructure_v1_1_0_util_axis2vector is either unconnected or has no load
WARNING: [Synth 8-7129] Port TSTRB[2] in module axis_infrastructure_v1_1_0_util_axis2vector is either unconnected or has no load
WARNING: [Synth 8-7129] Port TSTRB[1] in module axis_infrastructure_v1_1_0_util_axis2vector is either unconnected or has no load
WARNING: [Synth 8-7129] Port TSTRB[0] in module axis_infrastructure_v1_1_0_util_axis2vector is either unconnected or has no load
WARNING: [Synth 8-7129] Port TID[0] in module axis_infrastructure_v1_1_0_util_axis2vector is either unconnected or has no load
WARNING: [Synth 8-7129] Port TDEST[0] in module axis_infrastructure_v1_1_0_util_axis2vector is either unconnected or has no load
WARNING: [Synth 8-7129] Port TUSER[0] in module axis_infrastructure_v1_1_0_util_axis2vector is either unconnected or has no load
---------------------------------------------------------------------------------
Finished RTL Elaboration : Time (s): cpu = 00:00:03 ; elapsed = 00:00:04 . Memory (MB): peak = 3039.812 ; gain = 446.676 ; free physical = 2941 ; free virtual = 17474
Synthesis current peak Physical Memory [PSS] (MB): peak = 2199.541; parent = 2048.562; children = 150.979
Synthesis current peak Virtual Memory [VSS] (MB): peak = 4040.211; parent = 3039.816; children = 1000.395
---------------------------------------------------------------------------------
---------------------------------------------------------------------------------
Start Handling Custom Attributes
---------------------------------------------------------------------------------
---------------------------------------------------------------------------------
Finished Handling Custom Attributes : Time (s): cpu = 00:00:03 ; elapsed = 00:00:04 . Memory (MB): peak = 3054.656 ; gain = 461.520 ; free physical = 3042 ; free virtual = 17578
Synthesis current peak Physical Memory [PSS] (MB): peak = 2199.541; parent = 2048.562; children = 150.979
Synthesis current peak Virtual Memory [VSS] (MB): peak = 4055.055; parent = 3054.660; children = 1000.395
---------------------------------------------------------------------------------
---------------------------------------------------------------------------------
Finished RTL Optimization Phase 1 : Time (s): cpu = 00:00:03 ; elapsed = 00:00:04 . Memory (MB): peak = 3054.656 ; gain = 461.520 ; free physical = 3082 ; free virtual = 17618
Synthesis current peak Physical Memory [PSS] (MB): peak = 2199.541; parent = 2048.562; children = 150.979
Synthesis current peak Virtual Memory [VSS] (MB): peak = 4055.055; parent = 3054.660; children = 1000.395
---------------------------------------------------------------------------------
Netlist sorting complete. Time (s): cpu = 00:00:00.01 ; elapsed = 00:00:00.01 . Memory (MB): peak = 3054.656 ; gain = 0.000 ; free physical = 3174 ; free virtual = 17713
INFO: [Project 1-570] Preparing netlist for logic optimization

Processing XDC Constraints
Initializing timing engine
Parsing XDC File [/media/dell/workspace/Xilinx_projects/ringallreduced/ringallreduced.gen/sources_1/ip/axis_register_slice_0/axis_register_slice_0_ooc.xdc] for cell 'inst'
Finished Parsing XDC File [/media/dell/workspace/Xilinx_projects/ringallreduced/ringallreduced.gen/sources_1/ip/axis_register_slice_0/axis_register_slice_0_ooc.xdc] for cell 'inst'
Parsing XDC File [/media/dell/workspace/Xilinx_projects/ringallreduced/ringallreduced.runs/axis_register_slice_0_synth_1/dont_touch.xdc]
Finished Parsing XDC File [/media/dell/workspace/Xilinx_projects/ringallreduced/ringallreduced.runs/axis_register_slice_0_synth_1/dont_touch.xdc]
Parsing XDC File [/media/dell/workspace/Xilinx_projects/ringallreduced/ringallreduced.gen/sources_1/ip/axis_register_slice_0/axis_register_slice_0_clocks.xdc] for cell 'inst'
Finished Parsing XDC File [/media/dell/workspace/Xilinx_projects/ringallreduced/ringallreduced.gen/sources_1/ip/axis_register_slice_0/axis_register_slice_0_clocks.xdc] for cell 'inst'
Completed Processing XDC Constraints

Netlist sorting complete. Time (s): cpu = 00:00:00 ; elapsed = 00:00:00 . Memory (MB): peak = 3227.250 ; gain = 0.000 ; free physical = 1761 ; free virtual = 16302
INFO: [Project 1-111] Unisim Transformation Summary:
No Unisim elements were transformed.

Constraint Validation Runtime : Time (s): cpu = 00:00:00.02 ; elapsed = 00:00:00.02 . Memory (MB): peak = 3227.250 ; gain = 0.000 ; free physical = 1757 ; free virtual = 16298
INFO: [Designutils 20-5008] Incremental synthesis strategy off
INFO: [Synth 8-11241] undeclared symbol 'REGCCE', assumed default net type 'wire' [/tools/Xilinx/Vivado/2022.2/data/verilog/src/unimacro/BRAM_SINGLE_MACRO.v:2170]
---------------------------------------------------------------------------------
Finished Constraint Validation : Time (s): cpu = 00:00:10 ; elapsed = 00:00:11 . Memory (MB): peak = 3227.250 ; gain = 634.113 ; free physical = 1626 ; free virtual = 16204
Synthesis current peak Physical Memory [PSS] (MB): peak = 2199.541; parent = 2048.562; children = 150.979
Synthesis current peak Virtual Memory [VSS] (MB): peak = 4195.633; parent = 3195.238; children = 1000.395
---------------------------------------------------------------------------------
---------------------------------------------------------------------------------
Start Loading Part and Timing Information
---------------------------------------------------------------------------------
Loading part: xcvu37p-fsvh2892-2L-e
INFO: [Synth 8-6742] Reading net delay rules and data
---------------------------------------------------------------------------------
Finished Loading Part and Timing Information : Time (s): cpu = 00:00:10 ; elapsed = 00:00:11 . Memory (MB): peak = 3227.250 ; gain = 634.113 ; free physical = 1617 ; free virtual = 16196
Synthesis current peak Physical Memory [PSS] (MB): peak = 2199.541; parent = 2048.562; children = 150.979
Synthesis current peak Virtual Memory [VSS] (MB): peak = 4195.633; parent = 3195.238; children = 1000.395
---------------------------------------------------------------------------------
---------------------------------------------------------------------------------
Start Applying 'set_property' XDC Constraints
---------------------------------------------------------------------------------
Applied set_property KEEP_HIERARCHY = SOFT for inst. (constraint file  /media/dell/workspace/Xilinx_projects/ringallreduced/ringallreduced.runs/axis_register_slice_0_synth_1/dont_touch.xdc, line 9).
---------------------------------------------------------------------------------
Finished applying 'set_property' XDC Constraints : Time (s): cpu = 00:00:10 ; elapsed = 00:00:11 . Memory (MB): peak = 3227.250 ; gain = 634.113 ; free physical = 1609 ; free virtual = 16188
Synthesis current peak Physical Memory [PSS] (MB): peak = 2199.541; parent = 2048.562; children = 150.979
Synthesis current peak Virtual Memory [VSS] (MB): peak = 4195.633; parent = 3195.238; children = 1000.395
---------------------------------------------------------------------------------
INFO: [Synth 8-4490] FSM extraction disabled for register 'gen_AB_reg_slice.state_reg' through user attribute
---------------------------------------------------------------------------------
Finished RTL Optimization Phase 2 : Time (s): cpu = 00:00:10 ; elapsed = 00:00:11 . Memory (MB): peak = 3227.250 ; gain = 634.113 ; free physical = 1502 ; free virtual = 16092
Synthesis current peak Physical Memory [PSS] (MB): peak = 2199.541; parent = 2048.562; children = 150.979
Synthesis current peak Virtual Memory [VSS] (MB): peak = 4195.633; parent = 3195.238; children = 1000.395
---------------------------------------------------------------------------------
---------------------------------------------------------------------------------
Start RTL Component Statistics 
---------------------------------------------------------------------------------
Detailed RTL Component Info : 
+---Registers : 
	              289 Bit    Registers := 2     
	                2 Bit    Registers := 1     
	                1 Bit    Registers := 3     
+---Muxes : 
	   2 Input  289 Bit        Muxes := 1     
	   5 Input    2 Bit        Muxes := 1     
	   2 Input    1 Bit        Muxes := 1     
	   4 Input    1 Bit        Muxes := 1     
---------------------------------------------------------------------------------
Finished RTL Component Statistics 
---------------------------------------------------------------------------------
---------------------------------------------------------------------------------
Start Part Resource Summary
---------------------------------------------------------------------------------
Part Resources:
DSPs: 9024 (col length:94)
BRAMs: 4032 (col length: RAMB18 288 RAMB36 144)
---------------------------------------------------------------------------------
Finished Part Resource Summary
---------------------------------------------------------------------------------
---------------------------------------------------------------------------------
Start Cross Boundary and Area Optimization
---------------------------------------------------------------------------------
WARNING: [Synth 8-7080] Parallel synthesis criteria is not met
WARNING: [Synth 8-7129] Port aclk2x in module axis_register_slice_v1_1_27_axis_register_slice is either unconnected or has no load
WARNING: [Synth 8-7129] Port s_axis_tstrb[31] in module axis_register_slice_v1_1_27_axis_register_slice is either unconnected or has no load
WARNING: [Synth 8-7129] Port s_axis_tstrb[30] in module axis_register_slice_v1_1_27_axis_register_slice is either unconnected or has no load
WARNING: [Synth 8-7129] Port s_axis_tstrb[29] in module axis_register_slice_v1_1_27_axis_register_slice is either unconnected or has no load
WARNING: [Synth 8-7129] Port s_axis_tstrb[28] in module axis_register_slice_v1_1_27_axis_register_slice is either unconnected or has no load
WARNING: [Synth 8-7129] Port s_axis_tstrb[27] in module axis_register_slice_v1_1_27_axis_register_slice is either unconnected or has no load
WARNING: [Synth 8-7129] Port s_axis_tstrb[26] in module axis_register_slice_v1_1_27_axis_register_slice is either unconnected or has no load
WARNING: [Synth 8-7129] Port s_axis_tstrb[25] in module axis_register_slice_v1_1_27_axis_register_slice is either unconnected or has no load
WARNING: [Synth 8-7129] Port s_axis_tstrb[24] in module axis_register_slice_v1_1_27_axis_register_slice is either unconnected or has no load
WARNING: [Synth 8-7129] Port s_axis_tstrb[23] in module axis_register_slice_v1_1_27_axis_register_slice is either unconnected or has no load
WARNING: [Synth 8-7129] Port s_axis_tstrb[22] in module axis_register_slice_v1_1_27_axis_register_slice is either unconnected or has no load
WARNING: [Synth 8-7129] Port s_axis_tstrb[21] in module axis_register_slice_v1_1_27_axis_register_slice is either unconnected or has no load
WARNING: [Synth 8-7129] Port s_axis_tstrb[20] in module axis_register_slice_v1_1_27_axis_register_slice is either unconnected or has no load
WARNING: [Synth 8-7129] Port s_axis_tstrb[19] in module axis_register_slice_v1_1_27_axis_register_slice is either unconnected or has no load
WARNING: [Synth 8-7129] Port s_axis_tstrb[18] in module axis_register_slice_v1_1_27_axis_register_slice is either unconnected or has no load
WARNING: [Synth 8-7129] Port s_axis_tstrb[17] in module axis_register_slice_v1_1_27_axis_register_slice is either unconnected or has no load
WARNING: [Synth 8-7129] Port s_axis_tstrb[16] in module axis_register_slice_v1_1_27_axis_register_slice is either unconnected or has no load
WARNING: [Synth 8-7129] Port s_axis_tstrb[15] in module axis_register_slice_v1_1_27_axis_register_slice is either unconnected or has no load
WARNING: [Synth 8-7129] Port s_axis_tstrb[14] in module axis_register_slice_v1_1_27_axis_register_slice is either unconnected or has no load
WARNING: [Synth 8-7129] Port s_axis_tstrb[13] in module axis_register_slice_v1_1_27_axis_register_slice is either unconnected or has no load
WARNING: [Synth 8-7129] Port s_axis_tstrb[12] in module axis_register_slice_v1_1_27_axis_register_slice is either unconnected or has no load
WARNING: [Synth 8-7129] Port s_axis_tstrb[11] in module axis_register_slice_v1_1_27_axis_register_slice is either unconnected or has no load
WARNING: [Synth 8-7129] Port s_axis_tstrb[10] in module axis_register_slice_v1_1_27_axis_register_slice is either unconnected or has no load
WARNING: [Synth 8-7129] Port s_axis_tstrb[9] in module axis_register_slice_v1_1_27_axis_register_slice is either unconnected or has no load
WARNING: [Synth 8-7129] Port s_axis_tstrb[8] in module axis_register_slice_v1_1_27_axis_register_slice is either unconnected or has no load
WARNING: [Synth 8-7129] Port s_axis_tstrb[7] in module axis_register_slice_v1_1_27_axis_register_slice is either unconnected or has no load
WARNING: [Synth 8-7129] Port s_axis_tstrb[6] in module axis_register_slice_v1_1_27_axis_register_slice is either unconnected or has no load
WARNING: [Synth 8-7129] Port s_axis_tstrb[5] in module axis_register_slice_v1_1_27_axis_register_slice is either unconnected or has no load
WARNING: [Synth 8-7129] Port s_axis_tstrb[4] in module axis_register_slice_v1_1_27_axis_register_slice is either unconnected or has no load
WARNING: [Synth 8-7129] Port s_axis_tstrb[3] in module axis_register_slice_v1_1_27_axis_register_slice is either unconnected or has no load
WARNING: [Synth 8-7129] Port s_axis_tstrb[2] in module axis_register_slice_v1_1_27_axis_register_slice is either unconnected or has no load
WARNING: [Synth 8-7129] Port s_axis_tstrb[1] in module axis_register_slice_v1_1_27_axis_register_slice is either unconnected or has no load
WARNING: [Synth 8-7129] Port s_axis_tstrb[0] in module axis_register_slice_v1_1_27_axis_register_slice is either unconnected or has no load
WARNING: [Synth 8-7129] Port s_axis_tid[0] in module axis_register_slice_v1_1_27_axis_register_slice is either unconnected or has no load
WARNING: [Synth 8-7129] Port s_axis_tdest[0] in module axis_register_slice_v1_1_27_axis_register_slice is either unconnected or has no load
WARNING: [Synth 8-7129] Port s_axis_tuser[0] in module axis_register_slice_v1_1_27_axis_register_slice is either unconnected or has no load
---------------------------------------------------------------------------------
Finished Cross Boundary and Area Optimization : Time (s): cpu = 00:00:11 ; elapsed = 00:00:12 . Memory (MB): peak = 3227.250 ; gain = 634.113 ; free physical = 1326 ; free virtual = 15943
Synthesis current peak Physical Memory [PSS] (MB): peak = 2199.541; parent = 2048.562; children = 150.979
Synthesis current peak Virtual Memory [VSS] (MB): peak = 4195.633; parent = 3195.238; children = 1000.395
---------------------------------------------------------------------------------
---------------------------------------------------------------------------------
Start Applying XDC Timing Constraints
---------------------------------------------------------------------------------
---------------------------------------------------------------------------------
Finished Applying XDC Timing Constraints : Time (s): cpu = 00:00:18 ; elapsed = 00:00:20 . Memory (MB): peak = 3481.047 ; gain = 887.910 ; free physical = 176 ; free virtual = 14452
Synthesis current peak Physical Memory [PSS] (MB): peak = 2665.694; parent = 2519.753; children = 150.979
Synthesis current peak Virtual Memory [VSS] (MB): peak = 4481.445; parent = 3481.051; children = 1000.395
---------------------------------------------------------------------------------
---------------------------------------------------------------------------------
Start Timing Optimization
---------------------------------------------------------------------------------
---------------------------------------------------------------------------------
Finished Timing Optimization : Time (s): cpu = 00:00:18 ; elapsed = 00:00:20 . Memory (MB): peak = 3492.062 ; gain = 898.926 ; free physical = 175 ; free virtual = 14418
Synthesis current peak Physical Memory [PSS] (MB): peak = 2667.553; parent = 2521.609; children = 150.979
Synthesis current peak Virtual Memory [VSS] (MB): peak = 4492.461; parent = 3492.066; children = 1000.395
---------------------------------------------------------------------------------
---------------------------------------------------------------------------------
Start Technology Mapping
---------------------------------------------------------------------------------
---------------------------------------------------------------------------------
Finished Technology Mapping : Time (s): cpu = 00:00:18 ; elapsed = 00:00:20 . Memory (MB): peak = 3502.086 ; gain = 908.949 ; free physical = 197 ; free virtual = 14411
Synthesis current peak Physical Memory [PSS] (MB): peak = 2667.553; parent = 2521.609; children = 150.979
Synthesis current peak Virtual Memory [VSS] (MB): peak = 4502.484; parent = 3502.090; children = 1000.395
---------------------------------------------------------------------------------
---------------------------------------------------------------------------------
Start IO Insertion
---------------------------------------------------------------------------------
---------------------------------------------------------------------------------
Start Flattening Before IO Insertion
---------------------------------------------------------------------------------
---------------------------------------------------------------------------------
Finished Flattening Before IO Insertion
---------------------------------------------------------------------------------
---------------------------------------------------------------------------------
Start Final Netlist Cleanup
---------------------------------------------------------------------------------
---------------------------------------------------------------------------------
Finished Final Netlist Cleanup
---------------------------------------------------------------------------------
---------------------------------------------------------------------------------
Finished IO Insertion : Time (s): cpu = 00:00:20 ; elapsed = 00:00:22 . Memory (MB): peak = 3508.023 ; gain = 914.887 ; free physical = 169 ; free virtual = 14314
Synthesis current peak Physical Memory [PSS] (MB): peak = 2667.553; parent = 2521.609; children = 150.979
Synthesis current peak Virtual Memory [VSS] (MB): peak = 4508.422; parent = 3508.027; children = 1000.395
---------------------------------------------------------------------------------
---------------------------------------------------------------------------------
Start Renaming Generated Instances
---------------------------------------------------------------------------------
---------------------------------------------------------------------------------
Finished Renaming Generated Instances : Time (s): cpu = 00:00:20 ; elapsed = 00:00:22 . Memory (MB): peak = 3508.023 ; gain = 914.887 ; free physical = 166 ; free virtual = 14311
Synthesis current peak Physical Memory [PSS] (MB): peak = 2667.553; parent = 2521.609; children = 150.979
Synthesis current peak Virtual Memory [VSS] (MB): peak = 4508.422; parent = 3508.027; children = 1000.395
---------------------------------------------------------------------------------
---------------------------------------------------------------------------------
Start Rebuilding User Hierarchy
---------------------------------------------------------------------------------
---------------------------------------------------------------------------------
Finished Rebuilding User Hierarchy : Time (s): cpu = 00:00:20 ; elapsed = 00:00:22 . Memory (MB): peak = 3508.023 ; gain = 914.887 ; free physical = 161 ; free virtual = 14307
Synthesis current peak Physical Memory [PSS] (MB): peak = 2667.553; parent = 2521.609; children = 150.979
Synthesis current peak Virtual Memory [VSS] (MB): peak = 4508.422; parent = 3508.027; children = 1000.395
---------------------------------------------------------------------------------
---------------------------------------------------------------------------------
Start Renaming Generated Ports
---------------------------------------------------------------------------------
---------------------------------------------------------------------------------
Finished Renaming Generated Ports : Time (s): cpu = 00:00:20 ; elapsed = 00:00:22 . Memory (MB): peak = 3508.023 ; gain = 914.887 ; free physical = 157 ; free virtual = 14302
Synthesis current peak Physical Memory [PSS] (MB): peak = 2667.553; parent = 2521.609; children = 150.979
Synthesis current peak Virtual Memory [VSS] (MB): peak = 4508.422; parent = 3508.027; children = 1000.395
---------------------------------------------------------------------------------
---------------------------------------------------------------------------------
Start Handling Custom Attributes
---------------------------------------------------------------------------------
---------------------------------------------------------------------------------
Finished Handling Custom Attributes : Time (s): cpu = 00:00:20 ; elapsed = 00:00:23 . Memory (MB): peak = 3508.023 ; gain = 914.887 ; free physical = 152 ; free virtual = 14298
Synthesis current peak Physical Memory [PSS] (MB): peak = 2667.553; parent = 2521.609; children = 150.979
Synthesis current peak Virtual Memory [VSS] (MB): peak = 4508.422; parent = 3508.027; children = 1000.395
---------------------------------------------------------------------------------
---------------------------------------------------------------------------------
Start Renaming Generated Nets
---------------------------------------------------------------------------------
---------------------------------------------------------------------------------
Finished Renaming Generated Nets : Time (s): cpu = 00:00:20 ; elapsed = 00:00:23 . Memory (MB): peak = 3508.023 ; gain = 914.887 ; free physical = 190 ; free virtual = 14304
Synthesis current peak Physical Memory [PSS] (MB): peak = 2667.553; parent = 2521.609; children = 150.979
Synthesis current peak Virtual Memory [VSS] (MB): peak = 4508.422; parent = 3508.027; children = 1000.395
---------------------------------------------------------------------------------
---------------------------------------------------------------------------------
Start Writing Synthesis Report
---------------------------------------------------------------------------------

Report BlackBoxes: 
+-+--------------+----------+
| |BlackBox name |Instances |
+-+--------------+----------+
+-+--------------+----------+

Report Cell Usage: 
+------+-----+------+
|      |Cell |Count |
+------+-----+------+
|1     |LUT1 |     1|
|2     |LUT3 |   293|
|3     |LUT4 |     3|
|4     |FDRE |   583|
+------+-----+------+
---------------------------------------------------------------------------------
Finished Writing Synthesis Report : Time (s): cpu = 00:00:20 ; elapsed = 00:00:23 . Memory (MB): peak = 3508.023 ; gain = 914.887 ; free physical = 200 ; free virtual = 14313
Synthesis current peak Physical Memory [PSS] (MB): peak = 2667.553; parent = 2521.609; children = 150.979
Synthesis current peak Virtual Memory [VSS] (MB): peak = 4508.422; parent = 3508.027; children = 1000.395
---------------------------------------------------------------------------------
Synthesis finished with 0 errors, 0 critical warnings and 37 warnings.
Synthesis Optimization Runtime : Time (s): cpu = 00:00:16 ; elapsed = 00:00:19 . Memory (MB): peak = 3508.023 ; gain = 742.293 ; free physical = 234 ; free virtual = 14348
Synthesis Optimization Complete : Time (s): cpu = 00:00:20 ; elapsed = 00:00:23 . Memory (MB): peak = 3508.031 ; gain = 914.887 ; free physical = 374 ; free virtual = 14488
INFO: [Project 1-571] Translating synthesized netlist
Netlist sorting complete. Time (s): cpu = 00:00:00.01 ; elapsed = 00:00:00.01 . Memory (MB): peak = 3515.961 ; gain = 0.000 ; free physical = 567 ; free virtual = 14680
INFO: [Project 1-570] Preparing netlist for logic optimization
INFO: [Opt 31-138] Pushed 0 inverter(s) to 0 load pin(s).
Netlist sorting complete. Time (s): cpu = 00:00:00 ; elapsed = 00:00:00 . Memory (MB): peak = 3608.215 ; gain = 0.000 ; free physical = 422 ; free virtual = 14536
INFO: [Project 1-111] Unisim Transformation Summary:
No Unisim elements were transformed.

Synth Design complete, checksum: c31f952b
INFO: [Common 17-83] Releasing license: Synthesis
32 Infos, 74 Warnings, 0 Critical Warnings and 0 Errors encountered.
synth_design completed successfully
synth_design: Time (s): cpu = 00:00:29 ; elapsed = 00:00:32 . Memory (MB): peak = 3608.215 ; gain = 2297.730 ; free physical = 647 ; free virtual = 14761
INFO: [Common 17-1381] The checkpoint '/media/dell/workspace/Xilinx_projects/ringallreduced/ringallreduced.runs/axis_register_slice_0_synth_1/axis_register_slice_0.dcp' has been generated.
INFO: [Coretcl 2-1648] Added synthesis output to IP cache for IP axis_register_slice_0, cache-ID = f238a77e6ac17d3e
INFO: [Coretcl 2-1174] Renamed 2 cell refs.
INFO: [Common 17-1381] The checkpoint '/media/dell/workspace/Xilinx_projects/ringallreduced/ringallreduced.runs/axis_register_slice_0_synth_1/axis_register_slice_0.dcp' has been generated.
INFO: [runtcl-4] Executing : report_utilization -file axis_register_slice_0_utilization_synth.rpt -pb axis_register_slice_0_utilization_synth.pb
INFO: [Common 17-206] Exiting Vivado at Tue Dec  6 16:15:07 2022...
